// Jest Snapshot v1, https://goo.gl/fbAQLP

exports[`entryPointAnalysis matches analysis snapshot for fixture: Entry Point Analysis 1`] = `
Object {
  "average": Object {
    "count": 10,
    "name": "average",
    "size": 5193288,
    "type": "special",
  },
  "default": Object {
    "assets": Array [
      "runtime.bundle.js",
      "main.chunk.js",
      "default.chunk.js",
    ],
    "childAssets": Object {},
    "children": Object {},
    "isOverSizeLimit": true,
    "name": "default",
    "size": 30,
    "type": "entrypoint",
  },
  "mainChunk": Object {
    "files": Array [
      "main.chunk.js",
      "main.chunk.js.map",
    ],
    "name": "main",
    "size": 5000000,
    "type": "special",
  },
  "pages.admin.abuse_reports": Object {
    "assets": Array [
      "runtime.bundle.js",
      "main.chunk.js",
      "commons~pages.admin.abuse_reports~pages.admin.audit_logs~pages.admin.groups.show~pages.dashboard.tod.chunk.js",
      "pages.admin.abuse_reports.chunk.js",
    ],
    "childAssets": Object {},
    "children": Object {},
    "isOverSizeLimit": true,
    "name": "pages.admin.abuse_reports",
    "size": 63000,
    "type": "entrypoint",
  },
  "pages.admin.application_settings": Object {
    "assets": Array [
      "runtime.bundle.js",
      "main.chunk.js",
      "commons~pages.admin.application_settings~pages.admin.application_settings.ci_cd~pages.admin.applicat.chunk.js",
      "commons~pages.admin.application_settings~pages.admin.application_settings.ci_cd~pages.admin.applicat.chunk.js",
      "pages.admin.application_settings.chunk.js",
    ],
    "childAssets": Object {},
    "children": Object {},
    "isOverSizeLimit": true,
    "name": "pages.admin.application_settings",
    "size": 283050,
    "type": "entrypoint",
  },
  "pages.admin.application_settings.general": Object {
    "assets": Array [
      "runtime.bundle.js",
      "main.chunk.js",
      "commons~pages.admin.application_settings~pages.admin.application_settings.ci_cd~pages.admin.applicat.chunk.js",
      "commons~pages.admin.application_settings~pages.admin.application_settings.ci_cd~pages.admin.applicat.chunk.js",
      "pages.admin.application_settings.general.chunk.js",
    ],
    "childAssets": Object {},
    "children": Object {},
    "isOverSizeLimit": true,
    "name": "pages.admin.application_settings.general",
    "size": 284200,
    "type": "entrypoint",
  },
  "pages.admin.application_settings.integrations": Object {
    "assets": Array [
      "runtime.bundle.js",
      "main.chunk.js",
      "commons~pages.admin.application_settings~pages.admin.application_settings.ci_cd~pages.admin.applicat.chunk.js",
      "commons~pages.admin.application_settings~pages.admin.application_settings.ci_cd~pages.admin.applicat.chunk.js",
      "pages.admin.application_settings.integrations.chunk.js",
    ],
    "childAssets": Object {},
    "children": Object {},
    "isOverSizeLimit": true,
    "name": "pages.admin.application_settings.integrations",
    "size": 285000,
    "type": "entrypoint",
  },
  "pages.admin.application_settings.metrics_and_profiling": Object {
    "assets": Array [
      "runtime.bundle.js",
      "main.chunk.js",
      "commons~pages.admin.application_settings~pages.admin.application_settings.ci_cd~pages.admin.applicat.chunk.js",
      "commons~pages.admin.application_settings~pages.admin.application_settings.ci_cd~pages.admin.applicat.chunk.js",
      "pages.admin.application_settings.metrics_and_profiling.chunk.js",
    ],
    "childAssets": Object {},
    "children": Object {},
    "isOverSizeLimit": true,
    "name": "pages.admin.application_settings.metrics_and_profiling",
    "size": 286600,
    "type": "entrypoint",
  },
  "pages.admin.broadcast_messages": Object {
    "assets": Array [
      "runtime.bundle.js",
      "main.chunk.js",
      "pages.admin.broadcast_messages.chunk.js",
    ],
    "childAssets": Object {},
    "children": Object {},
    "isOverSizeLimit": true,
    "name": "pages.admin.broadcast_messages",
    "size": 28000,
    "type": "entrypoint",
  },
  "pages.admin.clusters.destroy": Object {
    "assets": Array [
      "runtime.bundle.js",
      "main.chunk.js",
      "commons~pages.admin.clusters~pages.admin.clusters.destroy~pages.admin.clusters.edit~pages.admin.clus.chunk.js",
      "commons~pages.admin.application_settings~pages.admin.application_settings.ci_cd~pages.admin.applicat.chunk.js",
      "pages.admin.clusters.destroy.chunk.js",
    ],
    "childAssets": Object {},
    "children": Object {},
    "isOverSizeLimit": true,
    "name": "pages.admin.clusters.destroy",
    "size": 345000,
    "type": "entrypoint",
  },
  "pages.admin.clusters.edit": Object {
    "assets": Array [
      "runtime.bundle.js",
      "main.chunk.js",
      "commons~pages.admin.clusters~pages.admin.clusters.destroy~pages.admin.clusters.edit~pages.admin.clus.chunk.js",
      "commons~pages.admin.application_settings~pages.admin.application_settings.ci_cd~pages.admin.applicat.chunk.js",
      "pages.admin.clusters.edit.chunk.js",
    ],
    "childAssets": Object {},
    "children": Object {},
    "isOverSizeLimit": true,
    "name": "pages.admin.clusters.edit",
    "size": 345000,
    "type": "entrypoint",
  },
  "sentry": Object {
    "assets": Array [
      "runtime.bundle.js",
      "main.chunk.js",
      "sentry.chunk.js",
    ],
    "childAssets": Object {},
    "children": Object {},
    "isOverSizeLimit": true,
    "name": "sentry",
    "size": 13000,
    "type": "entrypoint",
  },
}
`;
